{
  "project_info": {
    "project_number": "707126383959",
    "firebase_url": "https://rcvendasapp.firebaseio.com",
    "project_id": "rcvendasapp",
    "storage_bucket": "rcvendasapp.appspot.com"
  },
  "client": [
    {
      "client_info": {
        "mobilesdk_app_id": "1:707126383959:android:765373667591847a",
        "android_client_info": {
          "package_name": "com.rcaplicacoes.vendas"
        }
      },
      "oauth_client": [
        {
          "client_id": "707126383959-b4occh8baihgiubidbifhstruqqtbmjb.apps.googleusercontent.com",
          "client_type": 3
        }
      ],
      "api_key": [
        {
          "current_key": "AIzaSyBWdTN_LwBRTd-NnkKUNHngeOQuSzRIIiU"
        }
      ],
      "services": {
        "appinvite_service": {
          "other_platform_oauth_client": [
            {
              "client_id": "707126383959-b4occh8baihgiubidbifhstruqqtbmjb.apps.googleusercontent.com",
              "client_type": 3
            }
          ]
        }
      }
    }
  ],
  "configuration_version": "1"
}